{
  "project_info": {
    "project_number": "85388842077",
    "firebase_url": "https://gcp-tutorials-289700.firebaseio.com",
    "project_id": "gcp-tutorials-289700",
    "storage_bucket": "gcp-tutorials-289700.appspot.com"
  },
  "client": [
    {
      "client_info": {
        "mobilesdk_app_id": "1:85388842077:android:cff2c9d5dbed93e906e9b4",
        "android_client_info": {
          "package_name": "marsel.oky.appx0e"
        }
      },
      "oauth_client": [
        {
          "client_id": "85388842077-n6s1odk22kfo4majgq39ckc75991g93h.apps.googleusercontent.com",
          "client_type": 3
        }
      ],
      "api_key": [
        {
          "current_key": "AIzaSyBe30LvmmL1zMCWuNDfDCmE1gT9McP2UtE"
        }
      ],
      "services": {
        "appinvite_service": {
          "other_platform_oauth_client": [
            {
              "client_id": "85388842077-n6s1odk22kfo4majgq39ckc75991g93h.apps.googleusercontent.com",
              "client_type": 3
            }
          ]
        }
      }
    },
    {
      "client_info": {
        "mobilesdk_app_id": "1:85388842077:android:ac2bedc5e40a855b06e9b4",
        "android_client_info": {
          "package_name": "marsel.oky.appx0f"
        }
      },
      "oauth_client": [
        {
          "client_id": "85388842077-n6s1odk22kfo4majgq39ckc75991g93h.apps.googleusercontent.com",
          "client_type": 3
        }
      ],
      "api_key": [
        {
          "current_key": "AIzaSyBe30LvmmL1zMCWuNDfDCmE1gT9McP2UtE"
        }
      ],
      "services": {
        "appinvite_service": {
          "other_platform_oauth_client": [
            {
              "client_id": "85388842077-n6s1odk22kfo4majgq39ckc75991g93h.apps.googleusercontent.com",
              "client_type": 3
            }
          ]
        }
      }
    },
    {
      "client_info": {
        "mobilesdk_app_id": "1:85388842077:android:739fc755c2187a2706e9b4",
        "android_client_info": {
          "package_name": "marsel.oky.appx10"
        }
      },
      "oauth_client": [
        {
          "client_id": "85388842077-n6s1odk22kfo4majgq39ckc75991g93h.apps.googleusercontent.com",
          "client_type": 3
        }
      ],
      "api_key": [
        {
          "current_key": "AIzaSyBe30LvmmL1zMCWuNDfDCmE1gT9McP2UtE"
        }
      ],
      "services": {
        "appinvite_service": {
          "other_platform_oauth_client": [
            {
              "client_id": "85388842077-n6s1odk22kfo4majgq39ckc75991g93h.apps.googleusercontent.com",
              "client_type": 3
            }
          ]
        }
      }
    },
    {
      "client_info": {
        "mobilesdk_app_id": "1:85388842077:android:d54033c4f1ff3f2d06e9b4",
        "android_client_info": {
          "package_name": "marsel.oky.cobauts"
        }
      },
      "oauth_client": [
        {
          "client_id": "85388842077-n6s1odk22kfo4majgq39ckc75991g93h.apps.googleusercontent.com",
          "client_type": 3
        }
      ],
      "api_key": [
        {
          "current_key": "AIzaSyBe30LvmmL1zMCWuNDfDCmE1gT9McP2UtE"
        }
      ],
      "services": {
        "appinvite_service": {
          "other_platform_oauth_client": [
            {
              "client_id": "85388842077-n6s1odk22kfo4majgq39ckc75991g93h.apps.googleusercontent.com",
              "client_type": 3
            }
          ]
        }
      }
    },
    {
      "client_info": {
        "mobilesdk_app_id": "1:85388842077:android:8284009a466da4db06e9b4",
        "android_client_info": {
          "package_name": "marsel.oky.puskots"
        }
      },
      "oauth_client": [
        {
          "client_id": "85388842077-n6s1odk22kfo4majgq39ckc75991g93h.apps.googleusercontent.com",
          "client_type": 3
        }
      ],
      "api_key": [
        {
          "current_key": "AIzaSyBe30LvmmL1zMCWuNDfDCmE1gT9McP2UtE"
        }
      ],
      "services": {
        "appinvite_service": {
          "other_platform_oauth_client": [
            {
              "client_id": "85388842077-n6s1odk22kfo4majgq39ckc75991g93h.apps.googleusercontent.com",
              "client_type": 3
            }
          ]
        }
      }
    },
    {
      "client_info": {
        "mobilesdk_app_id": "1:85388842077:android:34ead9ded4a3eeb906e9b4",
        "android_client_info": {
          "package_name": "surur.misbahus.appx0d"
        }
      },
      "oauth_client": [
        {
          "client_id": "85388842077-n6s1odk22kfo4majgq39ckc75991g93h.apps.googleusercontent.com",
          "client_type": 3
        }
      ],
      "api_key": [
        {
          "current_key": "AIzaSyBe30LvmmL1zMCWuNDfDCmE1gT9McP2UtE"
        }
      ],
      "services": {
        "appinvite_service": {
          "other_platform_oauth_client": [
            {
              "client_id": "85388842077-n6s1odk22kfo4majgq39ckc75991g93h.apps.googleusercontent.com",
              "client_type": 3
            }
          ]
        }
      }
    }
  ],
  "configuration_version": "1"
}